{
    "appName": "NameCoachDemo",
    "projectId": "9a3ab277-bc3d-4db9-a722-cb9655e389f3",
    "solutionSettings": {
        "name": "fx-solution-azure",
        "version": "1.0.0",
        "hostType": "Azure",
        "azureResources": [],
        "capabilities": [
            "Tab",
            "TabSSO",
            "MessagingExtension"
        ],
        "activeResourcePlugins": [
            "fx-resource-local-debug",
            "fx-resource-appstudio",
            "fx-resource-cicd",
            "fx-resource-api-connector",
            "fx-resource-aad-app-for-teams",
            "fx-resource-frontend-hosting",
            "fx-resource-bot",
            "fx-resource-identity"
        ]
    },
    "version": "2.1.0",
    "isFromSample": false,
    "programmingLanguage": "typescript",
    "components": [
        {
            "name": "aad-app",
            "provision": true,
            "deploy": true
        },
        {
            "hosting": "azure-storage",
            "name": "teams-tab",
            "build": true,
            "provision": true,
            "folder": "tabs",
            "sso": true,
            "deploy": true
        },
        {
            "name": "azure-storage",
            "connections": [
                "teams-tab"
            ],
            "provision": true
        },
        {
            "hosting": "azure-web-app",
            "name": "teams-bot",
            "build": true,
            "provision": true,
            "folder": "bot",
            "capabilities": [
                "message-extension"
            ],
            "sso": false,
            "deploy": true
        },
        {
            "name": "azure-web-app",
            "connections": [
                "identity",
                "aad-app",
                "teams-tab",
                "teams-bot"
            ],
            "provision": true,
            "scenario": "Bot"
        },
        {
            "name": "bot-service",
            "provision": true
        },
        {
            "name": "identity"
        }
    ],
    "pluginSettings": {
        "fx-resource-bot": {
            "host-type": "app-service",
            "capabilities": [
                "message-extension"
            ]
        }
    }
}